{
  "annotations": {
    "list": [
      {
        "builtIn": 1,
        "datasource": "-- Grafana --",
        "enable": true,
        "hide": true,
        "iconColor": "rgba(0, 211, 255, 1)",
        "name": "Annotations & Alerts",
        "type": "dashboard"
      }
    ]
  },
  "description": "Monitor your websites and applications using Statping service. View more information at https://github.com/hunterlong/statping",
  "editable": true,
  "gnetId": 6950,
  "graphTooltip": 2,
  "id": 137,
  "iteration": 1574676551365,
  "links": [],
  "panels": [
    {
      "collapsed": true,
      "gridPos": {
        "h": 1,
        "w": 24,
        "x": 0,
        "y": 0
      },
      "id": 21,
      "panels": [
        {
          "cacheTimeout": null,
          "colorBackground": false,
          "colorValue": true,
          "colors": [
            "#C4162A",
            "#C4162A",
            "#56A64B"
          ],
          "datasource": "Prometheus",
          "format": "locale",
          "gauge": {
            "maxValue": 1,
            "minValue": 0,
            "show": false,
            "thresholdLabels": false,
            "thresholdMarkers": true
          },
          "gridPos": {
            "h": 3,
            "w": 6,
            "x": 0,
            "y": 1
          },
          "id": 22,
          "interval": null,
          "links": [],
          "mappingType": 1,
          "mappingTypes": [
            {
              "name": "value to text",
              "value": 1
            },
            {
              "name": "range to text",
              "value": 2
            }
          ],
          "maxDataPoints": 100,
          "nullPointMode": "connected",
          "nullText": null,
          "options": {},
          "postfix": "",
          "postfixFontSize": "50%",
          "prefix": "",
          "prefixFontSize": "50%",
          "rangeMaps": [
            {
              "from": "null",
              "text": "N/A",
              "to": "null"
            }
          ],
          "repeat": "service",
          "repeatDirection": "h",
          "scopedVars": {
            "service": {
              "selected": false,
              "text": "app.artia.com",
              "value": "app.artia.com"
            }
          },
          "sparkline": {
            "fillColor": "rgba(31, 118, 189, 0.18)",
            "full": false,
            "lineColor": "rgb(31, 120, 193)",
            "show": false
          },
          "tableColumn": "",
          "targets": [
            {
              "expr": "statping_service_online{name=~\"${service}\"}",
              "format": "time_series",
              "instant": true,
              "intervalFactor": 1,
              "refId": "A"
            }
          ],
          "thresholds": "0,1",
          "title": "${service}",
          "type": "singlestat",
          "valueFontSize": "100%",
          "valueMaps": [
            {
              "op": "=",
              "text": "ONLINE",
              "value": "1"
            },
            {
              "op": "=",
              "text": "OFFLINE",
              "value": "0"
            }
          ],
          "valueName": "current"
        },
        {
          "cacheTimeout": null,
          "colorBackground": false,
          "colorValue": true,
          "colors": [
            "#C4162A",
            "#C4162A",
            "#56A64B"
          ],
          "datasource": "Prometheus",
          "format": "locale",
          "gauge": {
            "maxValue": 1,
            "minValue": 0,
            "show": false,
            "thresholdLabels": false,
            "thresholdMarkers": true
          },
          "gridPos": {
            "h": 3,
            "w": 6,
            "x": 6,
            "y": 1
          },
          "id": 23,
          "interval": null,
          "links": [],
          "mappingType": 1,
          "mappingTypes": [
            {
              "name": "value to text",
              "value": 1
            },
            {
              "name": "range to text",
              "value": 2
            }
          ],
          "maxDataPoints": 100,
          "nullPointMode": "connected",
          "nullText": null,
          "options": {},
          "postfix": "",
          "postfixFontSize": "50%",
          "prefix": "",
          "prefixFontSize": "50%",
          "rangeMaps": [
            {
              "from": "null",
              "text": "N/A",
              "to": "null"
            }
          ],
          "repeat": null,
          "repeatDirection": "h",
          "repeatIteration": 1574676551363,
          "repeatPanelId": 22,
          "scopedVars": {
            "service": {
              "selected": false,
              "text": "app.camerite.com",
              "value": "app.camerite.com"
            }
          },
          "sparkline": {
            "fillColor": "rgba(31, 118, 189, 0.18)",
            "full": false,
            "lineColor": "rgb(31, 120, 193)",
            "show": false
          },
          "tableColumn": "",
          "targets": [
            {
              "expr": "statping_service_online{name=~\"${service}\"}",
              "format": "time_series",
              "instant": true,
              "intervalFactor": 1,
              "refId": "A"
            }
          ],
          "thresholds": "0,1",
          "title": "${service}",
          "type": "singlestat",
          "valueFontSize": "100%",
          "valueMaps": [
            {
              "op": "=",
              "text": "ONLINE",
              "value": "1"
            },
            {
              "op": "=",
              "text": "OFFLINE",
              "value": "0"
            }
          ],
          "valueName": "current"
        },
        {
          "cacheTimeout": null,
          "colorBackground": false,
          "colorValue": true,
          "colors": [
            "#C4162A",
            "#C4162A",
            "#56A64B"
          ],
          "datasource": "Prometheus",
          "format": "locale",
          "gauge": {
            "maxValue": 1,
            "minValue": 0,
            "show": false,
            "thresholdLabels": false,
            "thresholdMarkers": true
          },
          "gridPos": {
            "h": 3,
            "w": 6,
            "x": 12,
            "y": 1
          },
          "id": 24,
          "interval": null,
          "links": [],
          "mappingType": 1,
          "mappingTypes": [
            {
              "name": "value to text",
              "value": 1
            },
            {
              "name": "range to text",
              "value": 2
            }
          ],
          "maxDataPoints": 100,
          "nullPointMode": "connected",
          "nullText": null,
          "options": {},
          "postfix": "",
          "postfixFontSize": "50%",
          "prefix": "",
          "prefixFontSize": "50%",
          "rangeMaps": [
            {
              "from": "null",
              "text": "N/A",
              "to": "null"
            }
          ],
          "repeat": null,
          "repeatDirection": "h",
          "repeatIteration": 1574676551363,
          "repeatPanelId": 22,
          "scopedVars": {
            "service": {
              "selected": false,
              "text": "app.hubmaster.com.br",
              "value": "app.hubmaster.com.br"
            }
          },
          "sparkline": {
            "fillColor": "rgba(31, 118, 189, 0.18)",
            "full": false,
            "lineColor": "rgb(31, 120, 193)",
            "show": false
          },
          "tableColumn": "",
          "targets": [
            {
              "expr": "statping_service_online{name=~\"${service}\"}",
              "format": "time_series",
              "instant": true,
              "intervalFactor": 1,
              "refId": "A"
            }
          ],
          "thresholds": "0,1",
          "title": "${service}",
          "type": "singlestat",
          "valueFontSize": "100%",
          "valueMaps": [
            {
              "op": "=",
              "text": "ONLINE",
              "value": "1"
            },
            {
              "op": "=",
              "text": "OFFLINE",
              "value": "0"
            }
          ],
          "valueName": "current"
        },
        {
          "cacheTimeout": null,
          "colorBackground": false,
          "colorValue": true,
          "colors": [
            "#C4162A",
            "#C4162A",
            "#56A64B"
          ],
          "datasource": "Prometheus",
          "format": "locale",
          "gauge": {
            "maxValue": 1,
            "minValue": 0,
            "show": false,
            "thresholdLabels": false,
            "thresholdMarkers": true
          },
          "gridPos": {
            "h": 3,
            "w": 6,
            "x": 18,
            "y": 1
          },
          "id": 25,
          "interval": null,
          "links": [],
          "mappingType": 1,
          "mappingTypes": [
            {
              "name": "value to text",
              "value": 1
            },
            {
              "name": "range to text",
              "value": 2
            }
          ],
          "maxDataPoints": 100,
          "nullPointMode": "connected",
          "nullText": null,
          "options": {},
          "postfix": "",
          "postfixFontSize": "50%",
          "prefix": "",
          "prefixFontSize": "50%",
          "rangeMaps": [
            {
              "from": "null",
              "text": "N/A",
              "to": "null"
            }
          ],
          "repeat": null,
          "repeatDirection": "h",
          "repeatIteration": 1574676551363,
          "repeatPanelId": 22,
          "scopedVars": {
            "service": {
              "selected": false,
              "text": "auth-stage.ms.venda.la",
              "value": "auth-stage.ms.venda.la"
            }
          },
          "sparkline": {
            "fillColor": "rgba(31, 118, 189, 0.18)",
            "full": false,
            "lineColor": "rgb(31, 120, 193)",
            "show": false
          },
          "tableColumn": "",
          "targets": [
            {
              "expr": "statping_service_online{name=~\"${service}\"}",
              "format": "time_series",
              "instant": true,
              "intervalFactor": 1,
              "refId": "A"
            }
          ],
          "thresholds": "0,1",
          "title": "${service}",
          "type": "singlestat",
          "valueFontSize": "100%",
          "valueMaps": [
            {
              "op": "=",
              "text": "ONLINE",
              "value": "1"
            },
            {
              "op": "=",
              "text": "OFFLINE",
              "value": "0"
            }
          ],
          "valueName": "current"
        },
        {
          "cacheTimeout": null,
          "colorBackground": false,
          "colorValue": true,
          "colors": [
            "#C4162A",
            "#C4162A",
            "#56A64B"
          ],
          "datasource": "Prometheus",
          "format": "locale",
          "gauge": {
            "maxValue": 1,
            "minValue": 0,
            "show": false,
            "thresholdLabels": false,
            "thresholdMarkers": true
          },
          "gridPos": {
            "h": 3,
            "w": 6,
            "x": 0,
            "y": 4
          },
          "id": 26,
          "interval": null,
          "links": [],
          "mappingType": 1,
          "mappingTypes": [
            {
              "name": "value to text",
              "value": 1
            },
            {
              "name": "range to text",
              "value": 2
            }
          ],
          "maxDataPoints": 100,
          "nullPointMode": "connected",
          "nullText": null,
          "options": {},
          "postfix": "",
          "postfixFontSize": "50%",
          "prefix": "",
          "prefixFontSize": "50%",
          "rangeMaps": [
            {
              "from": "null",
              "text": "N/A",
              "to": "null"
            }
          ],
          "repeat": null,
          "repeatDirection": "h",
          "repeatIteration": 1574676551363,
          "repeatPanelId": 22,
          "scopedVars": {
            "service": {
              "selected": false,
              "text": "auth.ms.venda.la",
              "value": "auth.ms.venda.la"
            }
          },
          "sparkline": {
            "fillColor": "rgba(31, 118, 189, 0.18)",
            "full": false,
            "lineColor": "rgb(31, 120, 193)",
            "show": false
          },
          "tableColumn": "",
          "targets": [
            {
              "expr": "statping_service_online{name=~\"${service}\"}",
              "format": "time_series",
              "instant": true,
              "intervalFactor": 1,
              "refId": "A"
            }
          ],
          "thresholds": "0,1",
          "title": "${service}",
          "type": "singlestat",
          "valueFontSize": "100%",
          "valueMaps": [
            {
              "op": "=",
              "text": "ONLINE",
              "value": "1"
            },
            {
              "op": "=",
              "text": "OFFLINE",
              "value": "0"
            }
          ],
          "valueName": "current"
        },
        {
          "cacheTimeout": null,
          "colorBackground": false,
          "colorValue": true,
          "colors": [
            "#C4162A",
            "#C4162A",
            "#56A64B"
          ],
          "datasource": "Prometheus",
          "format": "locale",
          "gauge": {
            "maxValue": 1,
            "minValue": 0,
            "show": false,
            "thresholdLabels": false,
            "thresholdMarkers": true
          },
          "gridPos": {
            "h": 3,
            "w": 6,
            "x": 6,
            "y": 4
          },
          "id": 27,
          "interval": null,
          "links": [],
          "mappingType": 1,
          "mappingTypes": [
            {
              "name": "value to text",
              "value": 1
            },
            {
              "name": "range to text",
              "value": 2
            }
          ],
          "maxDataPoints": 100,
          "nullPointMode": "connected",
          "nullText": null,
          "options": {},
          "postfix": "",
          "postfixFontSize": "50%",
          "prefix": "",
          "prefixFontSize": "50%",
          "rangeMaps": [
            {
              "from": "null",
              "text": "N/A",
              "to": "null"
            }
          ],
          "repeat": null,
          "repeatDirection": "h",
          "repeatIteration": 1574676551363,
          "repeatPanelId": 22,
          "scopedVars": {
            "service": {
              "selected": false,
              "text": "avell.com.br",
              "value": "avell.com.br"
            }
          },
          "sparkline": {
            "fillColor": "rgba(31, 118, 189, 0.18)",
            "full": false,
            "lineColor": "rgb(31, 120, 193)",
            "show": false
          },
          "tableColumn": "",
          "targets": [
            {
              "expr": "statping_service_online{name=~\"${service}\"}",
              "format": "time_series",
              "instant": true,
              "intervalFactor": 1,
              "refId": "A"
            }
          ],
          "thresholds": "0,1",
          "title": "${service}",
          "type": "singlestat",
          "valueFontSize": "100%",
          "valueMaps": [
            {
              "op": "=",
              "text": "ONLINE",
              "value": "1"
            },
            {
              "op": "=",
              "text": "OFFLINE",
              "value": "0"
            }
          ],
          "valueName": "current"
        },
        {
          "cacheTimeout": null,
          "colorBackground": false,
          "colorValue": true,
          "colors": [
            "#C4162A",
            "#C4162A",
            "#56A64B"
          ],
          "datasource": "Prometheus",
          "format": "locale",
          "gauge": {
            "maxValue": 1,
            "minValue": 0,
            "show": false,
            "thresholdLabels": false,
            "thresholdMarkers": true
          },
          "gridPos": {
            "h": 3,
            "w": 6,
            "x": 12,
            "y": 4
          },
          "id": 28,
          "interval": null,
          "links": [],
          "mappingType": 1,
          "mappingTypes": [
            {
              "name": "value to text",
              "value": 1
            },
            {
              "name": "range to text",
              "value": 2
            }
          ],
          "maxDataPoints": 100,
          "nullPointMode": "connected",
          "nullText": null,
          "options": {},
          "postfix": "",
          "postfixFontSize": "50%",
          "prefix": "",
          "prefixFontSize": "50%",
          "rangeMaps": [
            {
              "from": "null",
              "text": "N/A",
              "to": "null"
            }
          ],
          "repeat": null,
          "repeatDirection": "h",
          "repeatIteration": 1574676551363,
          "repeatPanelId": 22,
          "scopedVars": {
            "service": {
              "selected": false,
              "text": "chat.ganex.com.br",
              "value": "chat.ganex.com.br"
            }
          },
          "sparkline": {
            "fillColor": "rgba(31, 118, 189, 0.18)",
            "full": false,
            "lineColor": "rgb(31, 120, 193)",
            "show": false
          },
          "tableColumn": "",
          "targets": [
            {
              "expr": "statping_service_online{name=~\"${service}\"}",
              "format": "time_series",
              "instant": true,
              "intervalFactor": 1,
              "refId": "A"
            }
          ],
          "thresholds": "0,1",
          "title": "${service}",
          "type": "singlestat",
          "valueFontSize": "100%",
          "valueMaps": [
            {
              "op": "=",
              "text": "ONLINE",
              "value": "1"
            },
            {
              "op": "=",
              "text": "OFFLINE",
              "value": "0"
            }
          ],
          "valueName": "current"
        },
        {
          "cacheTimeout": null,
          "colorBackground": false,
          "colorValue": true,
          "colors": [
            "#C4162A",
            "#C4162A",
            "#56A64B"
          ],
          "datasource": "Prometheus",
          "format": "locale",
          "gauge": {
            "maxValue": 1,
            "minValue": 0,
            "show": false,
            "thresholdLabels": false,
            "thresholdMarkers": true
          },
          "gridPos": {
            "h": 3,
            "w": 6,
            "x": 18,
            "y": 4
          },
          "id": 29,
          "interval": null,
          "links": [],
          "mappingType": 1,
          "mappingTypes": [
            {
              "name": "value to text",
              "value": 1
            },
            {
              "name": "range to text",
              "value": 2
            }
          ],
          "maxDataPoints": 100,
          "nullPointMode": "connected",
          "nullText": null,
          "options": {},
          "postfix": "",
          "postfixFontSize": "50%",
          "prefix": "",
          "prefixFontSize": "50%",
          "rangeMaps": [
            {
              "from": "null",
              "text": "N/A",
              "to": "null"
            }
          ],
          "repeat": null,
          "repeatDirection": "h",
          "repeatIteration": 1574676551363,
          "repeatPanelId": 22,
          "scopedVars": {
            "service": {
              "selected": false,
              "text": "dandelin-server-development.dandelin.io",
              "value": "dandelin-server-development.dandelin.io"
            }
          },
          "sparkline": {
            "fillColor": "rgba(31, 118, 189, 0.18)",
            "full": false,
            "lineColor": "rgb(31, 120, 193)",
            "show": false
          },
          "tableColumn": "",
          "targets": [
            {
              "expr": "statping_service_online{name=~\"${service}\"}",
              "format": "time_series",
              "instant": true,
              "intervalFactor": 1,
              "refId": "A"
            }
          ],
          "thresholds": "0,1",
          "title": "${service}",
          "type": "singlestat",
          "valueFontSize": "100%",
          "valueMaps": [
            {
              "op": "=",
              "text": "ONLINE",
              "value": "1"
            },
            {
              "op": "=",
              "text": "OFFLINE",
              "value": "0"
            }
          ],
          "valueName": "current"
        },
        {
          "cacheTimeout": null,
          "colorBackground": false,
          "colorValue": true,
          "colors": [
            "#C4162A",
            "#C4162A",
            "#56A64B"
          ],
          "datasource": "Prometheus",
          "format": "locale",
          "gauge": {
            "maxValue": 1,
            "minValue": 0,
            "show": false,
            "thresholdLabels": false,
            "thresholdMarkers": true
          },
          "gridPos": {
            "h": 3,
            "w": 6,
            "x": 0,
            "y": 7
          },
          "id": 30,
          "interval": null,
          "links": [],
          "mappingType": 1,
          "mappingTypes": [
            {
              "name": "value to text",
              "value": 1
            },
            {
              "name": "range to text",
              "value": 2
            }
          ],
          "maxDataPoints": 100,
          "nullPointMode": "connected",
          "nullText": null,
          "options": {},
          "postfix": "",
          "postfixFontSize": "50%",
          "prefix": "",
          "prefixFontSize": "50%",
          "rangeMaps": [
            {
              "from": "null",
              "text": "N/A",
              "to": "null"
            }
          ],
          "repeat": null,
          "repeatDirection": "h",
          "repeatIteration": 1574676551363,
          "repeatPanelId": 22,
          "scopedVars": {
            "service": {
              "selected": false,
              "text": "dandelin-server-stage.dandelin.io",
              "value": "dandelin-server-stage.dandelin.io"
            }
          },
          "sparkline": {
            "fillColor": "rgba(31, 118, 189, 0.18)",
            "full": false,
            "lineColor": "rgb(31, 120, 193)",
            "show": false
          },
          "tableColumn": "",
          "targets": [
            {
              "expr": "statping_service_online{name=~\"${service}\"}",
              "format": "time_series",
              "instant": true,
              "intervalFactor": 1,
              "refId": "A"
            }
          ],
          "thresholds": "0,1",
          "title": "${service}",
          "type": "singlestat",
          "valueFontSize": "100%",
          "valueMaps": [
            {
              "op": "=",
              "text": "ONLINE",
              "value": "1"
            },
            {
              "op": "=",
              "text": "OFFLINE",
              "value": "0"
            }
          ],
          "valueName": "current"
        },
        {
          "cacheTimeout": null,
          "colorBackground": false,
          "colorValue": true,
          "colors": [
            "#C4162A",
            "#C4162A",
            "#56A64B"
          ],
          "datasource": "Prometheus",
          "format": "locale",
          "gauge": {
            "maxValue": 1,
            "minValue": 0,
            "show": false,
            "thresholdLabels": false,
            "thresholdMarkers": true
          },
          "gridPos": {
            "h": 3,
            "w": 6,
            "x": 6,
            "y": 7
          },
          "id": 31,
          "interval": null,
          "links": [],
          "mappingType": 1,
          "mappingTypes": [
            {
              "name": "value to text",
              "value": 1
            },
            {
              "name": "range to text",
              "value": 2
            }
          ],
          "maxDataPoints": 100,
          "nullPointMode": "connected",
          "nullText": null,
          "options": {},
          "postfix": "",
          "postfixFontSize": "50%",
          "prefix": "",
          "prefixFontSize": "50%",
          "rangeMaps": [
            {
              "from": "null",
              "text": "N/A",
              "to": "null"
            }
          ],
          "repeat": null,
          "repeatDirection": "h",
          "repeatIteration": 1574676551363,
          "repeatPanelId": 22,
          "scopedVars": {
            "service": {
              "selected": false,
              "text": "dashboard.dandelin.io",
              "value": "dashboard.dandelin.io"
            }
          },
          "sparkline": {
            "fillColor": "rgba(31, 118, 189, 0.18)",
            "full": false,
            "lineColor": "rgb(31, 120, 193)",
            "show": false
          },
          "tableColumn": "",
          "targets": [
            {
              "expr": "statping_service_online{name=~\"${service}\"}",
              "format": "time_series",
              "instant": true,
              "intervalFactor": 1,
              "refId": "A"
            }
          ],
          "thresholds": "0,1",
          "title": "${service}",
          "type": "singlestat",
          "valueFontSize": "100%",
          "valueMaps": [
            {
              "op": "=",
              "text": "ONLINE",
              "value": "1"
            },
            {
              "op": "=",
              "text": "OFFLINE",
              "value": "0"
            }
          ],
          "valueName": "current"
        },
        {
          "cacheTimeout": null,
          "colorBackground": false,
          "colorValue": true,
          "colors": [
            "#C4162A",
            "#C4162A",
            "#56A64B"
          ],
          "datasource": "Prometheus",
          "format": "locale",
          "gauge": {
            "maxValue": 1,
            "minValue": 0,
            "show": false,
            "thresholdLabels": false,
            "thresholdMarkers": true
          },
          "gridPos": {
            "h": 3,
            "w": 6,
            "x": 12,
            "y": 7
          },
          "id": 32,
          "interval": null,
          "links": [],
          "mappingType": 1,
          "mappingTypes": [
            {
              "name": "value to text",
              "value": 1
            },
            {
              "name": "range to text",
              "value": 2
            }
          ],
          "maxDataPoints": 100,
          "nullPointMode": "connected",
          "nullText": null,
          "options": {},
          "postfix": "",
          "postfixFontSize": "50%",
          "prefix": "",
          "prefixFontSize": "50%",
          "rangeMaps": [
            {
              "from": "null",
              "text": "N/A",
              "to": "null"
            }
          ],
          "repeat": null,
          "repeatDirection": "h",
          "repeatIteration": 1574676551363,
          "repeatPanelId": 22,
          "scopedVars": {
            "service": {
              "selected": false,
              "text": "defatoonline.com.br",
              "value": "defatoonline.com.br"
            }
          },
          "sparkline": {
            "fillColor": "rgba(31, 118, 189, 0.18)",
            "full": false,
            "lineColor": "rgb(31, 120, 193)",
            "show": false
          },
          "tableColumn": "",
          "targets": [
            {
              "expr": "statping_service_online{name=~\"${service}\"}",
              "format": "time_series",
              "instant": true,
              "intervalFactor": 1,
              "refId": "A"
            }
          ],
          "thresholds": "0,1",
          "title": "${service}",
          "type": "singlestat",
          "valueFontSize": "100%",
          "valueMaps": [
            {
              "op": "=",
              "text": "ONLINE",
              "value": "1"
            },
            {
              "op": "=",
              "text": "OFFLINE",
              "value": "0"
            }
          ],
          "valueName": "current"
        },
        {
          "cacheTimeout": null,
          "colorBackground": false,
          "colorValue": true,
          "colors": [
            "#C4162A",
            "#C4162A",
            "#56A64B"
          ],
          "datasource": "Prometheus",
          "format": "locale",
          "gauge": {
            "maxValue": 1,
            "minValue": 0,
            "show": false,
            "thresholdLabels": false,
            "thresholdMarkers": true
          },
          "gridPos": {
            "h": 3,
            "w": 6,
            "x": 18,
            "y": 7
          },
          "id": 33,
          "interval": null,
          "links": [],
          "mappingType": 1,
          "mappingTypes": [
            {
              "name": "value to text",
              "value": 1
            },
            {
              "name": "range to text",
              "value": 2
            }
          ],
          "maxDataPoints": 100,
          "nullPointMode": "connected",
          "nullText": null,
          "options": {},
          "postfix": "",
          "postfixFontSize": "50%",
          "prefix": "",
          "prefixFontSize": "50%",
          "rangeMaps": [
            {
              "from": "null",
              "text": "N/A",
              "to": "null"
            }
          ],
          "repeat": null,
          "repeatDirection": "h",
          "repeatIteration": 1574676551363,
          "repeatPanelId": 22,
          "scopedVars": {
            "service": {
              "selected": false,
              "text": "exclusivo.artia.com",
              "value": "exclusivo.artia.com"
            }
          },
          "sparkline": {
            "fillColor": "rgba(31, 118, 189, 0.18)",
            "full": false,
            "lineColor": "rgb(31, 120, 193)",
            "show": false
          },
          "tableColumn": "",
          "targets": [
            {
              "expr": "statping_service_online{name=~\"${service}\"}",
              "format": "time_series",
              "instant": true,
              "intervalFactor": 1,
              "refId": "A"
            }
          ],
          "thresholds": "0,1",
          "title": "${service}",
          "type": "singlestat",
          "valueFontSize": "100%",
          "valueMaps": [
            {
              "op": "=",
              "text": "ONLINE",
              "value": "1"
            },
            {
              "op": "=",
              "text": "OFFLINE",
              "value": "0"
            }
          ],
          "valueName": "current"
        },
        {
          "cacheTimeout": null,
          "colorBackground": false,
          "colorValue": true,
          "colors": [
            "#C4162A",
            "#C4162A",
            "#56A64B"
          ],
          "datasource": "Prometheus",
          "format": "locale",
          "gauge": {
            "maxValue": 1,
            "minValue": 0,
            "show": false,
            "thresholdLabels": false,
            "thresholdMarkers": true
          },
          "gridPos": {
            "h": 3,
            "w": 6,
            "x": 0,
            "y": 10
          },
          "id": 34,
          "interval": null,
          "links": [],
          "mappingType": 1,
          "mappingTypes": [
            {
              "name": "value to text",
              "value": 1
            },
            {
              "name": "range to text",
              "value": 2
            }
          ],
          "maxDataPoints": 100,
          "nullPointMode": "connected",
          "nullText": null,
          "options": {},
          "postfix": "",
          "postfixFontSize": "50%",
          "prefix": "",
          "prefixFontSize": "50%",
          "rangeMaps": [
            {
              "from": "null",
              "text": "N/A",
              "to": "null"
            }
          ],
          "repeat": null,
          "repeatDirection": "h",
          "repeatIteration": 1574676551363,
          "repeatPanelId": 22,
          "scopedVars": {
            "service": {
              "selected": false,
              "text": "ganex.com.br",
              "value": "ganex.com.br"
            }
          },
          "sparkline": {
            "fillColor": "rgba(31, 118, 189, 0.18)",
            "full": false,
            "lineColor": "rgb(31, 120, 193)",
            "show": false
          },
          "tableColumn": "",
          "targets": [
            {
              "expr": "statping_service_online{name=~\"${service}\"}",
              "format": "time_series",
              "instant": true,
              "intervalFactor": 1,
              "refId": "A"
            }
          ],
          "thresholds": "0,1",
          "title": "${service}",
          "type": "singlestat",
          "valueFontSize": "100%",
          "valueMaps": [
            {
              "op": "=",
              "text": "ONLINE",
              "value": "1"
            },
            {
              "op": "=",
              "text": "OFFLINE",
              "value": "0"
            }
          ],
          "valueName": "current"
        },
        {
          "cacheTimeout": null,
          "colorBackground": false,
          "colorValue": true,
          "colors": [
            "#C4162A",
            "#C4162A",
            "#56A64B"
          ],
          "datasource": "Prometheus",
          "format": "locale",
          "gauge": {
            "maxValue": 1,
            "minValue": 0,
            "show": false,
            "thresholdLabels": false,
            "thresholdMarkers": true
          },
          "gridPos": {
            "h": 3,
            "w": 6,
            "x": 6,
            "y": 10
          },
          "id": 35,
          "interval": null,
          "links": [],
          "mappingType": 1,
          "mappingTypes": [
            {
              "name": "value to text",
              "value": 1
            },
            {
              "name": "range to text",
              "value": 2
            }
          ],
          "maxDataPoints": 100,
          "nullPointMode": "connected",
          "nullText": null,
          "options": {},
          "postfix": "",
          "postfixFontSize": "50%",
          "prefix": "",
          "prefixFontSize": "50%",
          "rangeMaps": [
            {
              "from": "null",
              "text": "N/A",
              "to": "null"
            }
          ],
          "repeat": null,
          "repeatDirection": "h",
          "repeatIteration": 1574676551363,
          "repeatPanelId": 22,
          "scopedVars": {
            "service": {
              "selected": false,
              "text": "gateway-stage.ms.venda.la",
              "value": "gateway-stage.ms.venda.la"
            }
          },
          "sparkline": {
            "fillColor": "rgba(31, 118, 189, 0.18)",
            "full": false,
            "lineColor": "rgb(31, 120, 193)",
            "show": false
          },
          "tableColumn": "",
          "targets": [
            {
              "expr": "statping_service_online{name=~\"${service}\"}",
              "format": "time_series",
              "instant": true,
              "intervalFactor": 1,
              "refId": "A"
            }
          ],
          "thresholds": "0,1",
          "title": "${service}",
          "type": "singlestat",
          "valueFontSize": "100%",
          "valueMaps": [
            {
              "op": "=",
              "text": "ONLINE",
              "value": "1"
            },
            {
              "op": "=",
              "text": "OFFLINE",
              "value": "0"
            }
          ],
          "valueName": "current"
        },
        {
          "cacheTimeout": null,
          "colorBackground": false,
          "colorValue": true,
          "colors": [
            "#C4162A",
            "#C4162A",
            "#56A64B"
          ],
          "datasource": "Prometheus",
          "format": "locale",
          "gauge": {
            "maxValue": 1,
            "minValue": 0,
            "show": false,
            "thresholdLabels": false,
            "thresholdMarkers": true
          },
          "gridPos": {
            "h": 3,
            "w": 6,
            "x": 12,
            "y": 10
          },
          "id": 36,
          "interval": null,
          "links": [],
          "mappingType": 1,
          "mappingTypes": [
            {
              "name": "value to text",
              "value": 1
            },
            {
              "name": "range to text",
              "value": 2
            }
          ],
          "maxDataPoints": 100,
          "nullPointMode": "connected",
          "nullText": null,
          "options": {},
          "postfix": "",
          "postfixFontSize": "50%",
          "prefix": "",
          "prefixFontSize": "50%",
          "rangeMaps": [
            {
              "from": "null",
              "text": "N/A",
              "to": "null"
            }
          ],
          "repeat": null,
          "repeatDirection": "h",
          "repeatIteration": 1574676551363,
          "repeatPanelId": 22,
          "scopedVars": {
            "service": {
              "selected": false,
              "text": "gateway.ms.venda.la",
              "value": "gateway.ms.venda.la"
            }
          },
          "sparkline": {
            "fillColor": "rgba(31, 118, 189, 0.18)",
            "full": false,
            "lineColor": "rgb(31, 120, 193)",
            "show": false
          },
          "tableColumn": "",
          "targets": [
            {
              "expr": "statping_service_online{name=~\"${service}\"}",
              "format": "time_series",
              "instant": true,
              "intervalFactor": 1,
              "refId": "A"
            }
          ],
          "thresholds": "0,1",
          "title": "${service}",
          "type": "singlestat",
          "valueFontSize": "100%",
          "valueMaps": [
            {
              "op": "=",
              "text": "ONLINE",
              "value": "1"
            },
            {
              "op": "=",
              "text": "OFFLINE",
              "value": "0"
            }
          ],
          "valueName": "current"
        },
        {
          "cacheTimeout": null,
          "colorBackground": false,
          "colorValue": true,
          "colors": [
            "#C4162A",
            "#C4162A",
            "#56A64B"
          ],
          "datasource": "Prometheus",
          "format": "locale",
          "gauge": {
            "maxValue": 1,
            "minValue": 0,
            "show": false,
            "thresholdLabels": false,
            "thresholdMarkers": true
          },
          "gridPos": {
            "h": 3,
            "w": 6,
            "x": 18,
            "y": 10
          },
          "id": 37,
          "interval": null,
          "links": [],
          "mappingType": 1,
          "mappingTypes": [
            {
              "name": "value to text",
              "value": 1
            },
            {
              "name": "range to text",
              "value": 2
            }
          ],
          "maxDataPoints": 100,
          "nullPointMode": "connected",
          "nullText": null,
          "options": {},
          "postfix": "",
          "postfixFontSize": "50%",
          "prefix": "",
          "prefixFontSize": "50%",
          "rangeMaps": [
            {
              "from": "null",
              "text": "N/A",
              "to": "null"
            }
          ],
          "repeat": null,
          "repeatDirection": "h",
          "repeatIteration": 1574676551363,
          "repeatPanelId": 22,
          "scopedVars": {
            "service": {
              "selected": false,
              "text": "ibfpos.com.br",
              "value": "ibfpos.com.br"
            }
          },
          "sparkline": {
            "fillColor": "rgba(31, 118, 189, 0.18)",
            "full": false,
            "lineColor": "rgb(31, 120, 193)",
            "show": false
          },
          "tableColumn": "",
          "targets": [
            {
              "expr": "statping_service_online{name=~\"${service}\"}",
              "format": "time_series",
              "instant": true,
              "intervalFactor": 1,
              "refId": "A"
            }
          ],
          "thresholds": "0,1",
          "title": "${service}",
          "type": "singlestat",
          "valueFontSize": "100%",
          "valueMaps": [
            {
              "op": "=",
              "text": "ONLINE",
              "value": "1"
            },
            {
              "op": "=",
              "text": "OFFLINE",
              "value": "0"
            }
          ],
          "valueName": "current"
        },
        {
          "cacheTimeout": null,
          "colorBackground": false,
          "colorValue": true,
          "colors": [
            "#C4162A",
            "#C4162A",
            "#56A64B"
          ],
          "datasource": "Prometheus",
          "format": "locale",
          "gauge": {
            "maxValue": 1,
            "minValue": 0,
            "show": false,
            "thresholdLabels": false,
            "thresholdMarkers": true
          },
          "gridPos": {
            "h": 3,
            "w": 6,
            "x": 0,
            "y": 13
          },
          "id": 38,
          "interval": null,
          "links": [],
          "mappingType": 1,
          "mappingTypes": [
            {
              "name": "value to text",
              "value": 1
            },
            {
              "name": "range to text",
              "value": 2
            }
          ],
          "maxDataPoints": 100,
          "nullPointMode": "connected",
          "nullText": null,
          "options": {},
          "postfix": "",
          "postfixFontSize": "50%",
          "prefix": "",
          "prefixFontSize": "50%",
          "rangeMaps": [
            {
              "from": "null",
              "text": "N/A",
              "to": "null"
            }
          ],
          "repeat": null,
          "repeatDirection": "h",
          "repeatIteration": 1574676551363,
          "repeatPanelId": 22,
          "scopedVars": {
            "service": {
              "selected": false,
              "text": "laboratorios-stage.dandelin.io",
              "value": "laboratorios-stage.dandelin.io"
            }
          },
          "sparkline": {
            "fillColor": "rgba(31, 118, 189, 0.18)",
            "full": false,
            "lineColor": "rgb(31, 120, 193)",
            "show": false
          },
          "tableColumn": "",
          "targets": [
            {
              "expr": "statping_service_online{name=~\"${service}\"}",
              "format": "time_series",
              "instant": true,
              "intervalFactor": 1,
              "refId": "A"
            }
          ],
          "thresholds": "0,1",
          "title": "${service}",
          "type": "singlestat",
          "valueFontSize": "100%",
          "valueMaps": [
            {
              "op": "=",
              "text": "ONLINE",
              "value": "1"
            },
            {
              "op": "=",
              "text": "OFFLINE",
              "value": "0"
            }
          ],
          "valueName": "current"
        },
        {
          "cacheTimeout": null,
          "colorBackground": false,
          "colorValue": true,
          "colors": [
            "#C4162A",
            "#C4162A",
            "#56A64B"
          ],
          "datasource": "Prometheus",
          "format": "locale",
          "gauge": {
            "maxValue": 1,
            "minValue": 0,
            "show": false,
            "thresholdLabels": false,
            "thresholdMarkers": true
          },
          "gridPos": {
            "h": 3,
            "w": 6,
            "x": 6,
            "y": 13
          },
          "id": 39,
          "interval": null,
          "links": [],
          "mappingType": 1,
          "mappingTypes": [
            {
              "name": "value to text",
              "value": 1
            },
            {
              "name": "range to text",
              "value": 2
            }
          ],
          "maxDataPoints": 100,
          "nullPointMode": "connected",
          "nullText": null,
          "options": {},
          "postfix": "",
          "postfixFontSize": "50%",
          "prefix": "",
          "prefixFontSize": "50%",
          "rangeMaps": [
            {
              "from": "null",
              "text": "N/A",
              "to": "null"
            }
          ],
          "repeat": null,
          "repeatDirection": "h",
          "repeatIteration": 1574676551363,
          "repeatPanelId": 22,
          "scopedVars": {
            "service": {
              "selected": false,
              "text": "laboratorios.dandelin.io",
              "value": "laboratorios.dandelin.io"
            }
          },
          "sparkline": {
            "fillColor": "rgba(31, 118, 189, 0.18)",
            "full": false,
            "lineColor": "rgb(31, 120, 193)",
            "show": false
          },
          "tableColumn": "",
          "targets": [
            {
              "expr": "statping_service_online{name=~\"${service}\"}",
              "format": "time_series",
              "instant": true,
              "intervalFactor": 1,
              "refId": "A"
            }
          ],
          "thresholds": "0,1",
          "title": "${service}",
          "type": "singlestat",
          "valueFontSize": "100%",
          "valueMaps": [
            {
              "op": "=",
              "text": "ONLINE",
              "value": "1"
            },
            {
              "op": "=",
              "text": "OFFLINE",
              "value": "0"
            }
          ],
          "valueName": "current"
        },
        {
          "cacheTimeout": null,
          "colorBackground": false,
          "colorValue": true,
          "colors": [
            "#C4162A",
            "#C4162A",
            "#56A64B"
          ],
          "datasource": "Prometheus",
          "format": "locale",
          "gauge": {
            "maxValue": 1,
            "minValue": 0,
            "show": false,
            "thresholdLabels": false,
            "thresholdMarkers": true
          },
          "gridPos": {
            "h": 3,
            "w": 6,
            "x": 12,
            "y": 13
          },
          "id": 40,
          "interval": null,
          "links": [],
          "mappingType": 1,
          "mappingTypes": [
            {
              "name": "value to text",
              "value": 1
            },
            {
              "name": "range to text",
              "value": 2
            }
          ],
          "maxDataPoints": 100,
          "nullPointMode": "connected",
          "nullText": null,
          "options": {},
          "postfix": "",
          "postfixFontSize": "50%",
          "prefix": "",
          "prefixFontSize": "50%",
          "rangeMaps": [
            {
              "from": "null",
              "text": "N/A",
              "to": "null"
            }
          ],
          "repeat": null,
          "repeatDirection": "h",
          "repeatIteration": 1574676551363,
          "repeatPanelId": 22,
          "scopedVars": {
            "service": {
              "selected": false,
              "text": "messages-stage.ms.venda.la",
              "value": "messages-stage.ms.venda.la"
            }
          },
          "sparkline": {
            "fillColor": "rgba(31, 118, 189, 0.18)",
            "full": false,
            "lineColor": "rgb(31, 120, 193)",
            "show": false
          },
          "tableColumn": "",
          "targets": [
            {
              "expr": "statping_service_online{name=~\"${service}\"}",
              "format": "time_series",
              "instant": true,
              "intervalFactor": 1,
              "refId": "A"
            }
          ],
          "thresholds": "0,1",
          "title": "${service}",
          "type": "singlestat",
          "valueFontSize": "100%",
          "valueMaps": [
            {
              "op": "=",
              "text": "ONLINE",
              "value": "1"
            },
            {
              "op": "=",
              "text": "OFFLINE",
              "value": "0"
            }
          ],
          "valueName": "current"
        },
        {
          "cacheTimeout": null,
          "colorBackground": false,
          "colorValue": true,
          "colors": [
            "#C4162A",
            "#C4162A",
            "#56A64B"
          ],
          "datasource": "Prometheus",
          "format": "locale",
          "gauge": {
            "maxValue": 1,
            "minValue": 0,
            "show": false,
            "thresholdLabels": false,
            "thresholdMarkers": true
          },
          "gridPos": {
            "h": 3,
            "w": 6,
            "x": 18,
            "y": 13
          },
          "id": 41,
          "interval": null,
          "links": [],
          "mappingType": 1,
          "mappingTypes": [
            {
              "name": "value to text",
              "value": 1
            },
            {
              "name": "range to text",
              "value": 2
            }
          ],
          "maxDataPoints": 100,
          "nullPointMode": "connected",
          "nullText": null,
          "options": {},
          "postfix": "",
          "postfixFontSize": "50%",
          "prefix": "",
          "prefixFontSize": "50%",
          "rangeMaps": [
            {
              "from": "null",
              "text": "N/A",
              "to": "null"
            }
          ],
          "repeat": null,
          "repeatDirection": "h",
          "repeatIteration": 1574676551363,
          "repeatPanelId": 22,
          "scopedVars": {
            "service": {
              "selected": false,
              "text": "messages.ms.venda.la",
              "value": "messages.ms.venda.la"
            }
          },
          "sparkline": {
            "fillColor": "rgba(31, 118, 189, 0.18)",
            "full": false,
            "lineColor": "rgb(31, 120, 193)",
            "show": false
          },
          "tableColumn": "",
          "targets": [
            {
              "expr": "statping_service_online{name=~\"${service}\"}",
              "format": "time_series",
              "instant": true,
              "intervalFactor": 1,
              "refId": "A"
            }
          ],
          "thresholds": "0,1",
          "title": "${service}",
          "type": "singlestat",
          "valueFontSize": "100%",
          "valueMaps": [
            {
              "op": "=",
              "text": "ONLINE",
              "value": "1"
            },
            {
              "op": "=",
              "text": "OFFLINE",
              "value": "0"
            }
          ],
          "valueName": "current"
        },
        {
          "cacheTimeout": null,
          "colorBackground": false,
          "colorValue": true,
          "colors": [
            "#C4162A",
            "#C4162A",
            "#56A64B"
          ],
          "datasource": "Prometheus",
          "format": "locale",
          "gauge": {
            "maxValue": 1,
            "minValue": 0,
            "show": false,
            "thresholdLabels": false,
            "thresholdMarkers": true
          },
          "gridPos": {
            "h": 3,
            "w": 6,
            "x": 0,
            "y": 16
          },
          "id": 42,
          "interval": null,
          "links": [],
          "mappingType": 1,
          "mappingTypes": [
            {
              "name": "value to text",
              "value": 1
            },
            {
              "name": "range to text",
              "value": 2
            }
          ],
          "maxDataPoints": 100,
          "nullPointMode": "connected",
          "nullText": null,
          "options": {},
          "postfix": "",
          "postfixFontSize": "50%",
          "prefix": "",
          "prefixFontSize": "50%",
          "rangeMaps": [
            {
              "from": "null",
              "text": "N/A",
              "to": "null"
            }
          ],
          "repeat": null,
          "repeatDirection": "h",
          "repeatIteration": 1574676551363,
          "repeatPanelId": 22,
          "scopedVars": {
            "service": {
              "selected": false,
              "text": "painel.dandelin.io",
              "value": "painel.dandelin.io"
            }
          },
          "sparkline": {
            "fillColor": "rgba(31, 118, 189, 0.18)",
            "full": false,
            "lineColor": "rgb(31, 120, 193)",
            "show": false
          },
          "tableColumn": "",
          "targets": [
            {
              "expr": "statping_service_online{name=~\"${service}\"}",
              "format": "time_series",
              "instant": true,
              "intervalFactor": 1,
              "refId": "A"
            }
          ],
          "thresholds": "0,1",
          "title": "${service}",
          "type": "singlestat",
          "valueFontSize": "100%",
          "valueMaps": [
            {
              "op": "=",
              "text": "ONLINE",
              "value": "1"
            },
            {
              "op": "=",
              "text": "OFFLINE",
              "value": "0"
            }
          ],
          "valueName": "current"
        },
        {
          "cacheTimeout": null,
          "colorBackground": false,
          "colorValue": true,
          "colors": [
            "#C4162A",
            "#C4162A",
            "#56A64B"
          ],
          "datasource": "Prometheus",
          "format": "locale",
          "gauge": {
            "maxValue": 1,
            "minValue": 0,
            "show": false,
            "thresholdLabels": false,
            "thresholdMarkers": true
          },
          "gridPos": {
            "h": 3,
            "w": 6,
            "x": 6,
            "y": 16
          },
          "id": 43,
          "interval": null,
          "links": [],
          "mappingType": 1,
          "mappingTypes": [
            {
              "name": "value to text",
              "value": 1
            },
            {
              "name": "range to text",
              "value": 2
            }
          ],
          "maxDataPoints": 100,
          "nullPointMode": "connected",
          "nullText": null,
          "options": {},
          "postfix": "",
          "postfixFontSize": "50%",
          "prefix": "",
          "prefixFontSize": "50%",
          "rangeMaps": [
            {
              "from": "null",
              "text": "N/A",
              "to": "null"
            }
          ],
          "repeat": null,
          "repeatDirection": "h",
          "repeatIteration": 1574676551363,
          "repeatPanelId": 22,
          "scopedVars": {
            "service": {
              "selected": false,
              "text": "questions-stage.ms.venda.la",
              "value": "questions-stage.ms.venda.la"
            }
          },
          "sparkline": {
            "fillColor": "rgba(31, 118, 189, 0.18)",
            "full": false,
            "lineColor": "rgb(31, 120, 193)",
            "show": false
          },
          "tableColumn": "",
          "targets": [
            {
              "expr": "statping_service_online{name=~\"${service}\"}",
              "format": "time_series",
              "instant": true,
              "intervalFactor": 1,
              "refId": "A"
            }
          ],
          "thresholds": "0,1",
          "title": "${service}",
          "type": "singlestat",
          "valueFontSize": "100%",
          "valueMaps": [
            {
              "op": "=",
              "text": "ONLINE",
              "value": "1"
            },
            {
              "op": "=",
              "text": "OFFLINE",
              "value": "0"
            }
          ],
          "valueName": "current"
        },
        {
          "cacheTimeout": null,
          "colorBackground": false,
          "colorValue": true,
          "colors": [
            "#C4162A",
            "#C4162A",
            "#56A64B"
          ],
          "datasource": "Prometheus",
          "format": "locale",
          "gauge": {
            "maxValue": 1,
            "minValue": 0,
            "show": false,
            "thresholdLabels": false,
            "thresholdMarkers": true
          },
          "gridPos": {
            "h": 3,
            "w": 6,
            "x": 12,
            "y": 16
          },
          "id": 44,
          "interval": null,
          "links": [],
          "mappingType": 1,
          "mappingTypes": [
            {
              "name": "value to text",
              "value": 1
            },
            {
              "name": "range to text",
              "value": 2
            }
          ],
          "maxDataPoints": 100,
          "nullPointMode": "connected",
          "nullText": null,
          "options": {},
          "postfix": "",
          "postfixFontSize": "50%",
          "prefix": "",
          "prefixFontSize": "50%",
          "rangeMaps": [
            {
              "from": "null",
              "text": "N/A",
              "to": "null"
            }
          ],
          "repeat": null,
          "repeatDirection": "h",
          "repeatIteration": 1574676551363,
          "repeatPanelId": 22,
          "scopedVars": {
            "service": {
              "selected": false,
              "text": "questions.ms.venda.la",
              "value": "questions.ms.venda.la"
            }
          },
          "sparkline": {
            "fillColor": "rgba(31, 118, 189, 0.18)",
            "full": false,
            "lineColor": "rgb(31, 120, 193)",
            "show": false
          },
          "tableColumn": "",
          "targets": [
            {
              "expr": "statping_service_online{name=~\"${service}\"}",
              "format": "time_series",
              "instant": true,
              "intervalFactor": 1,
              "refId": "A"
            }
          ],
          "thresholds": "0,1",
          "title": "${service}",
          "type": "singlestat",
          "valueFontSize": "100%",
          "valueMaps": [
            {
              "op": "=",
              "text": "ONLINE",
              "value": "1"
            },
            {
              "op": "=",
              "text": "OFFLINE",
              "value": "0"
            }
          ],
          "valueName": "current"
        },
        {
          "cacheTimeout": null,
          "colorBackground": false,
          "colorValue": true,
          "colors": [
            "#C4162A",
            "#C4162A",
            "#56A64B"
          ],
          "datasource": "Prometheus",
          "format": "locale",
          "gauge": {
            "maxValue": 1,
            "minValue": 0,
            "show": false,
            "thresholdLabels": false,
            "thresholdMarkers": true
          },
          "gridPos": {
            "h": 3,
            "w": 6,
            "x": 18,
            "y": 16
          },
          "id": 45,
          "interval": null,
          "links": [],
          "mappingType": 1,
          "mappingTypes": [
            {
              "name": "value to text",
              "value": 1
            },
            {
              "name": "range to text",
              "value": 2
            }
          ],
          "maxDataPoints": 100,
          "nullPointMode": "connected",
          "nullText": null,
          "options": {},
          "postfix": "",
          "postfixFontSize": "50%",
          "prefix": "",
          "prefixFontSize": "50%",
          "rangeMaps": [
            {
              "from": "null",
              "text": "N/A",
              "to": "null"
            }
          ],
          "repeat": null,
          "repeatDirection": "h",
          "repeatIteration": 1574676551363,
          "repeatPanelId": 22,
          "scopedVars": {
            "service": {
              "selected": false,
              "text": "sleepfree.com.br",
              "value": "sleepfree.com.br"
            }
          },
          "sparkline": {
            "fillColor": "rgba(31, 118, 189, 0.18)",
            "full": false,
            "lineColor": "rgb(31, 120, 193)",
            "show": false
          },
          "tableColumn": "",
          "targets": [
            {
              "expr": "statping_service_online{name=~\"${service}\"}",
              "format": "time_series",
              "instant": true,
              "intervalFactor": 1,
              "refId": "A"
            }
          ],
          "thresholds": "0,1",
          "title": "${service}",
          "type": "singlestat",
          "valueFontSize": "100%",
          "valueMaps": [
            {
              "op": "=",
              "text": "ONLINE",
              "value": "1"
            },
            {
              "op": "=",
              "text": "OFFLINE",
              "value": "0"
            }
          ],
          "valueName": "current"
        },
        {
          "cacheTimeout": null,
          "colorBackground": false,
          "colorValue": true,
          "colors": [
            "#C4162A",
            "#C4162A",
            "#56A64B"
          ],
          "datasource": "Prometheus",
          "format": "locale",
          "gauge": {
            "maxValue": 1,
            "minValue": 0,
            "show": false,
            "thresholdLabels": false,
            "thresholdMarkers": true
          },
          "gridPos": {
            "h": 3,
            "w": 6,
            "x": 0,
            "y": 19
          },
          "id": 46,
          "interval": null,
          "links": [],
          "mappingType": 1,
          "mappingTypes": [
            {
              "name": "value to text",
              "value": 1
            },
            {
              "name": "range to text",
              "value": 2
            }
          ],
          "maxDataPoints": 100,
          "nullPointMode": "connected",
          "nullText": null,
          "options": {},
          "postfix": "",
          "postfixFontSize": "50%",
          "prefix": "",
          "prefixFontSize": "50%",
          "rangeMaps": [
            {
              "from": "null",
              "text": "N/A",
              "to": "null"
            }
          ],
          "repeat": null,
          "repeatDirection": "h",
          "repeatIteration": 1574676551363,
          "repeatPanelId": 22,
          "scopedVars": {
            "service": {
              "selected": false,
              "text": "stage-api.dandelin.io",
              "value": "stage-api.dandelin.io"
            }
          },
          "sparkline": {
            "fillColor": "rgba(31, 118, 189, 0.18)",
            "full": false,
            "lineColor": "rgb(31, 120, 193)",
            "show": false
          },
          "tableColumn": "",
          "targets": [
            {
              "expr": "statping_service_online{name=~\"${service}\"}",
              "format": "time_series",
              "instant": true,
              "intervalFactor": 1,
              "refId": "A"
            }
          ],
          "thresholds": "0,1",
          "title": "${service}",
          "type": "singlestat",
          "valueFontSize": "100%",
          "valueMaps": [
            {
              "op": "=",
              "text": "ONLINE",
              "value": "1"
            },
            {
              "op": "=",
              "text": "OFFLINE",
              "value": "0"
            }
          ],
          "valueName": "current"
        },
        {
          "cacheTimeout": null,
          "colorBackground": false,
          "colorValue": true,
          "colors": [
            "#C4162A",
            "#C4162A",
            "#56A64B"
          ],
          "datasource": "Prometheus",
          "format": "locale",
          "gauge": {
            "maxValue": 1,
            "minValue": 0,
            "show": false,
            "thresholdLabels": false,
            "thresholdMarkers": true
          },
          "gridPos": {
            "h": 3,
            "w": 6,
            "x": 6,
            "y": 19
          },
          "id": 47,
          "interval": null,
          "links": [],
          "mappingType": 1,
          "mappingTypes": [
            {
              "name": "value to text",
              "value": 1
            },
            {
              "name": "range to text",
              "value": 2
            }
          ],
          "maxDataPoints": 100,
          "nullPointMode": "connected",
          "nullText": null,
          "options": {},
          "postfix": "",
          "postfixFontSize": "50%",
          "prefix": "",
          "prefixFontSize": "50%",
          "rangeMaps": [
            {
              "from": "null",
              "text": "N/A",
              "to": "null"
            }
          ],
          "repeat": null,
          "repeatDirection": "h",
          "repeatIteration": 1574676551363,
          "repeatPanelId": 22,
          "scopedVars": {
            "service": {
              "selected": false,
              "text": "stage.hubmaster.com.br",
              "value": "stage.hubmaster.com.br"
            }
          },
          "sparkline": {
            "fillColor": "rgba(31, 118, 189, 0.18)",
            "full": false,
            "lineColor": "rgb(31, 120, 193)",
            "show": false
          },
          "tableColumn": "",
          "targets": [
            {
              "expr": "statping_service_online{name=~\"${service}\"}",
              "format": "time_series",
              "instant": true,
              "intervalFactor": 1,
              "refId": "A"
            }
          ],
          "thresholds": "0,1",
          "title": "${service}",
          "type": "singlestat",
          "valueFontSize": "100%",
          "valueMaps": [
            {
              "op": "=",
              "text": "ONLINE",
              "value": "1"
            },
            {
              "op": "=",
              "text": "OFFLINE",
              "value": "0"
            }
          ],
          "valueName": "current"
        },
        {
          "cacheTimeout": null,
          "colorBackground": false,
          "colorValue": true,
          "colors": [
            "#C4162A",
            "#C4162A",
            "#56A64B"
          ],
          "datasource": "Prometheus",
          "format": "locale",
          "gauge": {
            "maxValue": 1,
            "minValue": 0,
            "show": false,
            "thresholdLabels": false,
            "thresholdMarkers": true
          },
          "gridPos": {
            "h": 3,
            "w": 6,
            "x": 12,
            "y": 19
          },
          "id": 48,
          "interval": null,
          "links": [],
          "mappingType": 1,
          "mappingTypes": [
            {
              "name": "value to text",
              "value": 1
            },
            {
              "name": "range to text",
              "value": 2
            }
          ],
          "maxDataPoints": 100,
          "nullPointMode": "connected",
          "nullText": null,
          "options": {},
          "postfix": "",
          "postfixFontSize": "50%",
          "prefix": "",
          "prefixFontSize": "50%",
          "rangeMaps": [
            {
              "from": "null",
              "text": "N/A",
              "to": "null"
            }
          ],
          "repeat": null,
          "repeatDirection": "h",
          "repeatIteration": 1574676551363,
          "repeatPanelId": 22,
          "scopedVars": {
            "service": {
              "selected": false,
              "text": "supergamebox.com.br",
              "value": "supergamebox.com.br"
            }
          },
          "sparkline": {
            "fillColor": "rgba(31, 118, 189, 0.18)",
            "full": false,
            "lineColor": "rgb(31, 120, 193)",
            "show": false
          },
          "tableColumn": "",
          "targets": [
            {
              "expr": "statping_service_online{name=~\"${service}\"}",
              "format": "time_series",
              "instant": true,
              "intervalFactor": 1,
              "refId": "A"
            }
          ],
          "thresholds": "0,1",
          "title": "${service}",
          "type": "singlestat",
          "valueFontSize": "100%",
          "valueMaps": [
            {
              "op": "=",
              "text": "ONLINE",
              "value": "1"
            },
            {
              "op": "=",
              "text": "OFFLINE",
              "value": "0"
            }
          ],
          "valueName": "current"
        },
        {
          "cacheTimeout": null,
          "colorBackground": false,
          "colorValue": true,
          "colors": [
            "#C4162A",
            "#C4162A",
            "#56A64B"
          ],
          "datasource": "Prometheus",
          "format": "locale",
          "gauge": {
            "maxValue": 1,
            "minValue": 0,
            "show": false,
            "thresholdLabels": false,
            "thresholdMarkers": true
          },
          "gridPos": {
            "h": 3,
            "w": 6,
            "x": 18,
            "y": 19
          },
          "id": 49,
          "interval": null,
          "links": [],
          "mappingType": 1,
          "mappingTypes": [
            {
              "name": "value to text",
              "value": 1
            },
            {
              "name": "range to text",
              "value": 2
            }
          ],
          "maxDataPoints": 100,
          "nullPointMode": "connected",
          "nullText": null,
          "options": {},
          "postfix": "",
          "postfixFontSize": "50%",
          "prefix": "",
          "prefixFontSize": "50%",
          "rangeMaps": [
            {
              "from": "null",
              "text": "N/A",
              "to": "null"
            }
          ],
          "repeat": null,
          "repeatDirection": "h",
          "repeatIteration": 1574676551363,
          "repeatPanelId": 22,
          "scopedVars": {
            "service": {
              "selected": false,
              "text": "tribunademinas.com.br",
              "value": "tribunademinas.com.br"
            }
          },
          "sparkline": {
            "fillColor": "rgba(31, 118, 189, 0.18)",
            "full": false,
            "lineColor": "rgb(31, 120, 193)",
            "show": false
          },
          "tableColumn": "",
          "targets": [
            {
              "expr": "statping_service_online{name=~\"${service}\"}",
              "format": "time_series",
              "instant": true,
              "intervalFactor": 1,
              "refId": "A"
            }
          ],
          "thresholds": "0,1",
          "title": "${service}",
          "type": "singlestat",
          "valueFontSize": "100%",
          "valueMaps": [
            {
              "op": "=",
              "text": "ONLINE",
              "value": "1"
            },
            {
              "op": "=",
              "text": "OFFLINE",
              "value": "0"
            }
          ],
          "valueName": "current"
        }
      ],
      "title": "Status",
      "type": "row"
    },
    {
      "collapsed": true,
      "gridPos": {
        "h": 1,
        "w": 24,
        "x": 0,
        "y": 1
      },
      "id": 19,
      "panels": [
        {
          "cacheTimeout": null,
          "colorBackground": false,
          "colorValue": true,
          "colors": [
            "#890f02",
            "rgba(237, 129, 40, 0.89)",
            "#56A64B"
          ],
          "datasource": "Prometheus",
          "format": "locale",
          "gauge": {
            "maxValue": 1,
            "minValue": 0,
            "show": false,
            "thresholdLabels": false,
            "thresholdMarkers": true
          },
          "gridPos": {
            "h": 3,
            "w": 8,
            "x": 0,
            "y": 2
          },
          "id": 6,
          "interval": null,
          "links": [],
          "mappingType": 1,
          "mappingTypes": [
            {
              "name": "value to text",
              "value": 1
            },
            {
              "name": "range to text",
              "value": 2
            }
          ],
          "maxDataPoints": 100,
          "nullPointMode": "connected",
          "nullText": null,
          "options": {},
          "postfix": "",
          "postfixFontSize": "50%",
          "prefix": "",
          "prefixFontSize": "50%",
          "rangeMaps": [
            {
              "from": "null",
              "text": "N/A",
              "to": "null"
            }
          ],
          "sparkline": {
            "fillColor": "rgba(31, 118, 189, 0.18)",
            "full": false,
            "lineColor": "rgb(31, 120, 193)",
            "show": false
          },
          "tableColumn": "",
          "targets": [
            {
              "expr": "statping_service_online{name=~\"${service}\"}",
              "format": "time_series",
              "intervalFactor": 1,
              "refId": "A"
            }
          ],
          "thresholds": "0,1",
          "title": "Status",
          "type": "singlestat",
          "valueFontSize": "100%",
          "valueMaps": [
            {
              "op": "=",
              "text": "ONLINE",
              "value": "1"
            },
            {
              "op": "=",
              "text": "OFFLINE",
              "value": "0"
            }
          ],
          "valueName": "current"
        },
        {
          "cacheTimeout": null,
          "colorBackground": false,
          "colorValue": true,
          "colors": [
            "#d44a3a",
            "rgba(237, 129, 40, 0.89)",
            "#299c46"
          ],
          "datasource": "Prometheus",
          "decimals": 2,
          "format": "percent",
          "gauge": {
            "maxValue": 100,
            "minValue": 0,
            "show": false,
            "thresholdLabels": false,
            "thresholdMarkers": true
          },
          "gridPos": {
            "h": 3,
            "w": 8,
            "x": 8,
            "y": 2
          },
          "id": 17,
          "interval": null,
          "links": [],
          "mappingType": 1,
          "mappingTypes": [
            {
              "name": "value to text",
              "value": 1
            },
            {
              "name": "range to text",
              "value": 2
            }
          ],
          "maxDataPoints": 100,
          "nullPointMode": "connected",
          "nullText": null,
          "options": {},
          "postfix": "",
          "postfixFontSize": "50%",
          "prefix": "",
          "prefixFontSize": "50%",
          "rangeMaps": [
            {
              "from": "null",
              "text": "N/A",
              "to": "null"
            }
          ],
          "sparkline": {
            "fillColor": "rgba(31, 118, 189, 0.18)",
            "full": false,
            "lineColor": "rgb(31, 120, 193)",
            "show": false
          },
          "tableColumn": "",
          "targets": [
            {
              "expr": "(avg_over_time(statping_service_online{name=~\"${service}\"}[1h]) > 0) * 100",
              "format": "time_series",
              "hide": false,
              "instant": false,
              "intervalFactor": 1,
              "refId": "B"
            }
          ],
          "thresholds": "90,95",
          "timeFrom": null,
          "timeShift": null,
          "title": "Uptime",
          "type": "singlestat",
          "valueFontSize": "80%",
          "valueMaps": [
            {
              "op": "=",
              "text": "N/A",
              "value": "null"
            }
          ],
          "valueName": "avg"
        },
        {
          "cacheTimeout": null,
          "colorBackground": false,
          "colorPostfix": false,
          "colorPrefix": false,
          "colorValue": true,
          "colors": [
            "#d44a3a",
            "#56A64B",
            "#299c46"
          ],
          "datasource": "Prometheus",
          "format": "locale",
          "gauge": {
            "maxValue": 100,
            "minValue": 0,
            "show": false,
            "thresholdLabels": false,
            "thresholdMarkers": true
          },
          "gridPos": {
            "h": 3,
            "w": 8,
            "x": 16,
            "y": 2
          },
          "id": 5,
          "interval": null,
          "links": [],
          "mappingType": 1,
          "mappingTypes": [
            {
              "name": "value to text",
              "value": 1
            },
            {
              "name": "range to text",
              "value": 2
            }
          ],
          "maxDataPoints": 100,
          "nullPointMode": "connected",
          "nullText": null,
          "options": {},
          "postfix": "",
          "postfixFontSize": "50%",
          "prefix": "",
          "prefixFontSize": "50%",
          "rangeMaps": [
            {
              "from": "null",
              "text": "N/A",
              "to": "null"
            }
          ],
          "sparkline": {
            "fillColor": "rgba(31, 118, 189, 0.18)",
            "full": false,
            "lineColor": "rgb(31, 120, 193)",
            "show": false
          },
          "tableColumn": "",
          "targets": [
            {
              "expr": "statping_service_status_code{name=~\"${service}\"}",
              "format": "time_series",
              "intervalFactor": 1,
              "refId": "A"
            }
          ],
          "thresholds": "200",
          "title": "Response Status Code",
          "type": "singlestat",
          "valueFontSize": "120%",
          "valueMaps": [
            {
              "op": "=",
              "text": "N/A",
              "value": "null"
            }
          ],
          "valueName": "current"
        },
        {
          "aliasColors": {},
          "bars": true,
          "cacheTimeout": null,
          "dashLength": 10,
          "dashes": false,
          "datasource": "Prometheus",
          "fill": 1,
          "fillGradient": 0,
          "gridPos": {
            "h": 7,
            "w": 12,
            "x": 0,
            "y": 5
          },
          "hideTimeOverride": false,
          "id": 16,
          "interval": "",
          "legend": {
            "avg": false,
            "current": false,
            "max": false,
            "min": false,
            "show": false,
            "total": false,
            "values": false
          },
          "lines": false,
          "linewidth": 1,
          "links": [],
          "nullPointMode": "null",
          "options": {
            "dataLinks": []
          },
          "paceLength": 10,
          "percentage": false,
          "pointradius": 2,
          "points": false,
          "renderer": "flot",
          "seriesOverrides": [
            {
              "alias": "/vector/",
              "color": "#C4162A"
            },
            {
              "alias": "/id/",
              "color": "#96D98D"
            }
          ],
          "spaceLength": 10,
          "stack": false,
          "steppedLine": false,
          "targets": [
            {
              "expr": "statping_service_online{name=~\"${service}\"} OR vector(1)",
              "format": "time_series",
              "hide": false,
              "instant": false,
              "intervalFactor": 2,
              "legendFormat": "",
              "refId": "A"
            }
          ],
          "thresholds": [],
          "timeFrom": null,
          "timeRegions": [],
          "timeShift": null,
          "title": "Uptime",
          "tooltip": {
            "shared": true,
            "sort": 0,
            "value_type": "individual"
          },
          "type": "graph",
          "xaxis": {
            "buckets": null,
            "mode": "time",
            "name": null,
            "show": true,
            "values": []
          },
          "yaxes": [
            {
              "format": "short",
              "label": null,
              "logBase": 1,
              "max": "1",
              "min": "0",
              "show": false
            },
            {
              "format": "short",
              "label": null,
              "logBase": 1,
              "max": null,
              "min": null,
              "show": false
            }
          ],
          "yaxis": {
            "align": false,
            "alignLevel": null
          }
        },
        {
          "aliasColors": {},
          "bars": false,
          "dashLength": 10,
          "dashes": false,
          "datasource": "Prometheus",
          "fill": 1,
          "fillGradient": 0,
          "gridPos": {
            "h": 7,
            "w": 12,
            "x": 12,
            "y": 5
          },
          "id": 2,
          "legend": {
            "avg": false,
            "current": false,
            "max": false,
            "min": false,
            "show": false,
            "total": false,
            "values": false
          },
          "lines": true,
          "linewidth": 1,
          "links": [],
          "nullPointMode": "null",
          "options": {
            "dataLinks": []
          },
          "paceLength": 10,
          "percentage": false,
          "pointradius": 5,
          "points": false,
          "renderer": "flot",
          "seriesOverrides": [],
          "spaceLength": 10,
          "stack": false,
          "steppedLine": false,
          "targets": [
            {
              "expr": "statping_service_latency{name=~\"$service\"}",
              "format": "time_series",
              "instant": false,
              "intervalFactor": 1,
              "legendFormat": "{{name}}",
              "refId": "A"
            }
          ],
          "thresholds": [],
          "timeFrom": null,
          "timeRegions": [],
          "timeShift": null,
          "title": "Latency",
          "tooltip": {
            "shared": true,
            "sort": 0,
            "value_type": "individual"
          },
          "type": "graph",
          "xaxis": {
            "buckets": null,
            "mode": "time",
            "name": null,
            "show": true,
            "values": []
          },
          "yaxes": [
            {
              "format": "ms",
              "label": null,
              "logBase": 1,
              "max": null,
              "min": null,
              "show": true
            },
            {
              "format": "short",
              "label": null,
              "logBase": 1,
              "max": null,
              "min": null,
              "show": true
            }
          ],
          "yaxis": {
            "align": false,
            "alignLevel": null
          }
        }
      ],
      "title": "Detailed",
      "type": "row"
    }
  ],
  "refresh": false,
  "schemaVersion": 19,
  "style": "dark",
  "tags": [],
  "templating": {
    "list": [
      {
        "allValue": null,
        "current": {
          "tags": [],
          "text": "app.artia.com",
          "value": [
            "app.artia.com"
          ]
        },
        "datasource": "Prometheus",
        "definition": "label_values(statping_service_latency, name)",
        "hide": 0,
        "includeAll": true,
        "label": "Service",
        "multi": true,
        "name": "service",
        "options": [],
        "query": "label_values(statping_service_latency, name)",
        "refresh": 2,
        "regex": "",
        "skipUrlSync": false,
        "sort": 1,
        "tagValuesQuery": "",
        "tags": [],
        "tagsQuery": "",
        "type": "query",
        "useTags": false
      }
    ]
  },
  "time": {
    "from": "now-6h",
    "to": "now"
  },
  "timepicker": {
    "refresh_intervals": [
      "5s",
      "10s",
      "30s",
      "1m",
      "5m",
      "15m",
      "30m",
      "1h",
      "2h",
      "1d"
    ],
    "time_options": [
      "5m",
      "15m",
      "1h",
      "6h",
      "12h",
      "24h",
      "2d",
      "7d",
      "30d"
    ]
  },
  "timezone": "",
  "title": "Statping",
  "uid": "6BzRjddmz",
  "version": 33
}